%YAML 1.1
%TAG !u! tag:unity3d.com,2011:
--- !u!29 &1
OcclusionCullingSettings:
  m_ObjectHideFlags: 0
  serializedVersion: 2
  m_OcclusionBakeSettings:
    smallestOccluder: 5
    smallestHole: 0.25
    backfaceThreshold: 100
  m_SceneGUID: 00000000000000000000000000000000
  m_OcclusionCullingData: {fileID: 0}
--- !u!104 &2
RenderSettings:
  m_ObjectHideFlags: 0
  serializedVersion: 9
  m_Fog: 0
  m_FogColor: {r: 0.5, g: 0.5, b: 0.5, a: 1}
  m_FogMode: 3
  m_FogDensity: 0.01
  m_LinearFogStart: 0
  m_LinearFogEnd: 300
  m_AmbientSkyColor: {r: 0.3922, g: 0.41995, b: 0.47915003, a: 1.85}
  m_AmbientEquatorColor: {r: 0.21090001, g: 0.23125, b: 0.24605, a: 1.85}
  m_AmbientGroundColor: {r: 0.08695, g: 0.079550005, b: 0.06475, a: 1.85}
  m_AmbientIntensity: 1.85
  m_AmbientMode: 0
  m_SubtractiveShadowColor: {r: 0.42, g: 0.478, b: 0.627, a: 1}
  m_SkyboxMaterial: {fileID: 10304, guid: 0000000000000000f000000000000000, type: 0}
  m_HaloStrength: 0.5
  m_FlareStrength: 1
  m_FlareFadeSpeed: 3
  m_HaloTexture: {fileID: 0}
  m_SpotCookie: {fileID: 10001, guid: 0000000000000000e000000000000000, type: 0}
  m_DefaultReflectionMode: 0
  m_DefaultReflectionResolution: 128
  m_ReflectionBounces: 1
  m_ReflectionIntensity: 1
  m_CustomReflection: {fileID: 0}
  m_Sun: {fileID: 0}
  m_IndirectSpecularColor: {r: 0, g: 0, b: 0, a: 1}
  m_UseRadianceAmbientProbe: 0
--- !u!157 &3
LightmapSettings:
  m_ObjectHideFlags: 0
  serializedVersion: 11
  m_GIWorkflowMode: 0
  m_GISettings:
    serializedVersion: 2
    m_BounceScale: 1
    m_IndirectOutputScale: 1
    m_AlbedoBoost: 1
    m_TemporalCoherenceThreshold: 1
    m_EnvironmentLightingMode: 0
    m_EnableBakedLightmaps: 1
    m_EnableRealtimeLightmaps: 1
  m_LightmapEditorSettings:
    serializedVersion: 10
    m_Resolution: 2
    m_BakeResolution: 40
    m_AtlasSize: 1024
    m_AO: 0
    m_AOMaxDistance: 1
    m_CompAOExponent: 0
    m_CompAOExponentDirect: 0
    m_Padding: 2
    m_LightmapParameters: {fileID: 0}
    m_LightmapsBakeMode: 1
    m_TextureCompression: 1
    m_FinalGather: 0
    m_FinalGatherFiltering: 1
    m_FinalGatherRayCount: 1024
    m_ReflectionCompression: 2
    m_MixedBakeMode: 1
    m_BakeBackend: 0
    m_PVRSampling: 1
    m_PVRDirectSampleCount: 32
    m_PVRSampleCount: 500
    m_PVRBounces: 2
    m_PVRFilterTypeDirect: 0
    m_PVRFilterTypeIndirect: 0
    m_PVRFilterTypeAO: 0
    m_PVRFilteringMode: 0
    m_PVRCulling: 1
    m_PVRFilteringGaussRadiusDirect: 1
    m_PVRFilteringGaussRadiusIndirect: 5
    m_PVRFilteringGaussRadiusAO: 2
    m_PVRFilteringAtrousPositionSigmaDirect: 0.5
    m_PVRFilteringAtrousPositionSigmaIndirect: 2
    m_PVRFilteringAtrousPositionSigmaAO: 1
    m_ShowResolutionOverlay: 1
  m_LightingDataAsset: {fileID: 0}
  m_UseShadowmask: 0
--- !u!196 &4
NavMeshSettings:
  serializedVersion: 2
  m_ObjectHideFlags: 0
  m_BuildSettings:
    serializedVersion: 2
    agentTypeID: 0
    agentRadius: 0.5
    agentHeight: 2
    agentSlope: 45
    agentClimb: 0.4
    ledgeDropHeight: 0
    maxJumpAcrossDistance: 0
    minRegionArea: 2
    manualCellSize: 0
    cellSize: 0.16666667
    manualTileSize: 0
    tileSize: 256
    accuratePlacement: 0
    debug:
      m_Flags: 0
  m_NavMeshData: {fileID: 0}
--- !u!1 &137731046
GameObject:
  m_ObjectHideFlags: 0
  m_PrefabParentObject: {fileID: 148800, guid: 55281349ab6ec74409da19efe96fa902, type: 2}
  m_PrefabInternal: {fileID: 180146371}
  serializedVersion: 5
  m_Component:
  - component: {fileID: 137731047}
  - component: {fileID: 137731049}
  - component: {fileID: 137731048}
  m_Layer: 0
  m_Name: Car_Collider
  m_TagString: Untagged
  m_Icon: {fileID: 0}
  m_NavMeshLayer: 0
  m_StaticEditorFlags: 0
  m_IsActive: 1
--- !u!4 &137731047
Transform:
  m_ObjectHideFlags: 0
  m_PrefabParentObject: {fileID: 413152, guid: 55281349ab6ec74409da19efe96fa902, type: 2}
  m_PrefabInternal: {fileID: 180146371}
  m_GameObject: {fileID: 137731046}
  m_LocalRotation: {x: 0, y: 0, z: 0, w: 1}
  m_LocalPosition: {x: 0, y: 0.39, z: 0}
  m_LocalScale: {x: 4.4372106, y: 1.3025746, z: 7.7730856}
  m_Children: []
  m_Father: {fileID: 1812107634}
  m_RootOrder: 1
  m_LocalEulerAnglesHint: {x: 0, y: 0, z: 0}
--- !u!64 &137731048
MeshCollider:
  m_ObjectHideFlags: 0
  m_PrefabParentObject: {fileID: 6468746, guid: 55281349ab6ec74409da19efe96fa902,
    type: 2}
  m_PrefabInternal: {fileID: 180146371}
  m_GameObject: {fileID: 137731046}
  m_Material: {fileID: 0}
  m_IsTrigger: 0
  m_Enabled: 1
  serializedVersion: 3
  m_Convex: 1
  m_CookingOptions: 14
  m_SkinWidth: 0.01
  m_Mesh: {fileID: 10202, guid: 0000000000000000e000000000000000, type: 0}
--- !u!33 &137731049
MeshFilter:
  m_ObjectHideFlags: 0
  m_PrefabParentObject: {fileID: 3302060, guid: 55281349ab6ec74409da19efe96fa902,
    type: 2}
  m_PrefabInternal: {fileID: 180146371}
  m_GameObject: {fileID: 137731046}
  m_Mesh: {fileID: 10202, guid: 0000000000000000e000000000000000, type: 0}
--- !u!1001 &180146371
Prefab:
  m_ObjectHideFlags: 0
  serializedVersion: 2
  m_Modification:
    m_TransformParent: {fileID: 0}
    m_Modifications:
    - target: {fileID: 413674, guid: 55281349ab6ec74409da19efe96fa902, type: 2}
      propertyPath: m_LocalPosition.x
      value: 0
      objectReference: {fileID: 0}
    - target: {fileID: 413674, guid: 55281349ab6ec74409da19efe96fa902, type: 2}
      propertyPath: m_LocalPosition.y
      value: 1.62
      objectReference: {fileID: 0}
    - target: {fileID: 413674, guid: 55281349ab6ec74409da19efe96fa902, type: 2}
      propertyPath: m_LocalPosition.z
      value: 0
      objectReference: {fileID: 0}
    - target: {fileID: 413674, guid: 55281349ab6ec74409da19efe96fa902, type: 2}
      propertyPath: m_LocalRotation.x
      value: 0
      objectReference: {fileID: 0}
    - target: {fileID: 413674, guid: 55281349ab6ec74409da19efe96fa902, type: 2}
      propertyPath: m_LocalRotation.y
      value: 0
      objectReference: {fileID: 0}
    - target: {fileID: 413674, guid: 55281349ab6ec74409da19efe96fa902, type: 2}
      propertyPath: m_LocalRotation.z
      value: 0
      objectReference: {fileID: 0}
    - target: {fileID: 413674, guid: 55281349ab6ec74409da19efe96fa902, type: 2}
      propertyPath: m_LocalRotation.w
      value: 1
      objectReference: {fileID: 0}
    - target: {fileID: 413674, guid: 55281349ab6ec74409da19efe96fa902, type: 2}
      propertyPath: m_RootOrder
      value: 2
      objectReference: {fileID: 0}
    - target: {fileID: 147314, guid: 55281349ab6ec74409da19efe96fa902, type: 2}
      propertyPath: m_Name
      value: Car_Base
      objectReference: {fileID: 0}
    m_RemovedComponents: []
  m_ParentPrefab: {fileID: 100100000, guid: 55281349ab6ec74409da19efe96fa902, type: 2}
  m_RootGameObject: {fileID: 1812107631}
  m_IsPrefabParent: 0
--- !u!1 &399225837
GameObject:
  m_ObjectHideFlags: 0
  m_PrefabParentObject: {fileID: 106578, guid: 55281349ab6ec74409da19efe96fa902, type: 2}
  m_PrefabInternal: {fileID: 180146371}
  serializedVersion: 5
  m_Component:
  - component: {fileID: 399225838}
  - component: {fileID: 399225840}
  - component: {fileID: 399225839}
  m_Layer: 0
  m_Name: 1L
  m_TagString: Untagged
  m_Icon: {fileID: 0}
  m_NavMeshLayer: 0
  m_StaticEditorFlags: 0
  m_IsActive: 1
--- !u!4 &399225838
Transform:
  m_ObjectHideFlags: 0
  m_PrefabParentObject: {fileID: 416338, guid: 55281349ab6ec74409da19efe96fa902, type: 2}
  m_PrefabInternal: {fileID: 180146371}
  m_GameObject: {fileID: 399225837}
  m_LocalRotation: {x: 0, y: 0, z: 0, w: 1}
  m_LocalPosition: {x: -1.8, y: 0, z: -1}
  m_LocalScale: {x: 1, y: 1, z: 1}
  m_Children: []
  m_Father: {fileID: 731525657}
  m_RootOrder: 2
  m_LocalEulerAnglesHint: {x: 0, y: 0, z: 0}
--- !u!23 &399225839
MeshRenderer:
  m_ObjectHideFlags: 0
  m_PrefabParentObject: {fileID: 2324758, guid: 55281349ab6ec74409da19efe96fa902,
    type: 2}
  m_PrefabInternal: {fileID: 180146371}
  m_GameObject: {fileID: 399225837}
  m_Enabled: 1
  m_CastShadows: 1
  m_ReceiveShadows: 1
  m_DynamicOccludee: 1
  m_MotionVectors: 1
  m_LightProbeUsage: 1
  m_ReflectionProbeUsage: 1
  m_RenderingLayerMask: 4294967295
  m_Materials:
  - {fileID: 2100000, guid: 7306cd9ff62712d49ba875ddadd338ed, type: 2}
  m_StaticBatchInfo:
    firstSubMesh: 0
    subMeshCount: 0
  m_StaticBatchRoot: {fileID: 0}
  m_ProbeAnchor: {fileID: 0}
  m_LightProbeVolumeOverride: {fileID: 0}
  m_ScaleInLightmap: 1
  m_PreserveUVs: 0
  m_IgnoreNormalsForChartDetection: 0
  m_ImportantGI: 0
  m_StitchLightmapSeams: 0
  m_SelectedEditorRenderState: 3
  m_MinimumChartSize: 4
  m_AutoUVMaxDistance: 0.5
  m_AutoUVMaxAngle: 89
  m_LightmapParameters: {fileID: 0}
  m_SortingLayerID: 0
  m_SortingLayer: 0
  m_SortingOrder: 0
--- !u!33 &399225840
MeshFilter:
  m_ObjectHideFlags: 0
  m_PrefabParentObject: {fileID: 3370432, guid: 55281349ab6ec74409da19efe96fa902,
    type: 2}
  m_PrefabInternal: {fileID: 180146371}
  m_GameObject: {fileID: 399225837}
  m_Mesh: {fileID: 4300000, guid: b7604807c4f956c4daa589baf5e3a4bc, type: 3}
--- !u!1 &497117086
GameObject:
  m_ObjectHideFlags: 0
  m_PrefabParentObject: {fileID: 159402, guid: 55281349ab6ec74409da19efe96fa902, type: 2}
  m_PrefabInternal: {fileID: 180146371}
  serializedVersion: 5
  m_Component:
  - component: {fileID: 497117089}
  - component: {fileID: 497117088}
  - component: {fileID: 497117087}
  m_Layer: 0
  m_Name: RR
  m_TagString: Untagged
  m_Icon: {fileID: 0}
  m_NavMeshLayer: 0
  m_StaticEditorFlags: 0
  m_IsActive: 1
--- !u!23 &497117087
MeshRenderer:
  m_ObjectHideFlags: 0
  m_PrefabParentObject: {fileID: 2392040, guid: 55281349ab6ec74409da19efe96fa902,
    type: 2}
  m_PrefabInternal: {fileID: 180146371}
  m_GameObject: {fileID: 497117086}
  m_Enabled: 1
  m_CastShadows: 1
  m_ReceiveShadows: 1
  m_DynamicOccludee: 1
  m_MotionVectors: 1
  m_LightProbeUsage: 1
  m_ReflectionProbeUsage: 1
  m_RenderingLayerMask: 4294967295
  m_Materials:
  - {fileID: 2100000, guid: 7306cd9ff62712d49ba875ddadd338ed, type: 2}
  m_StaticBatchInfo:
    firstSubMesh: 0
    subMeshCount: 0
  m_StaticBatchRoot: {fileID: 0}
  m_ProbeAnchor: {fileID: 0}
  m_LightProbeVolumeOverride: {fileID: 0}
  m_ScaleInLightmap: 1
  m_PreserveUVs: 0
  m_IgnoreNormalsForChartDetection: 0
  m_ImportantGI: 0
  m_StitchLightmapSeams: 0
  m_SelectedEditorRenderState: 3
  m_MinimumChartSize: 4
  m_AutoUVMaxDistance: 0.5
  m_AutoUVMaxAngle: 89
  m_LightmapParameters: {fileID: 0}
  m_SortingLayerID: 0
  m_SortingLayer: 0
  m_SortingOrder: 0
--- !u!33 &497117088
MeshFilter:
  m_ObjectHideFlags: 0
  m_PrefabParentObject: {fileID: 3323494, guid: 55281349ab6ec74409da19efe96fa902,
    type: 2}
  m_PrefabInternal: {fileID: 180146371}
  m_GameObject: {fileID: 497117086}
  m_Mesh: {fileID: 4300000, guid: 6fc09161a7612284eb475c73f1442fe5, type: 3}
--- !u!4 &497117089
Transform:
  m_ObjectHideFlags: 0
  m_PrefabParentObject: {fileID: 460930, guid: 55281349ab6ec74409da19efe96fa902, type: 2}
  m_PrefabInternal: {fileID: 180146371}
  m_GameObject: {fileID: 497117086}
  m_LocalRotation: {x: 0, y: 0, z: 0, w: 1}
  m_LocalPosition: {x: 1.8, y: 0, z: -3}
  m_LocalScale: {x: 1, y: 1, z: 1}
  m_Children: []
  m_Father: {fileID: 731525657}
  m_RootOrder: 5
  m_LocalEulerAnglesHint: {x: 0, y: 0, z: 0}
--- !u!1 &612740479
GameObject:
  m_ObjectHideFlags: 0
  m_PrefabParentObject: {fileID: 117624, guid: 55281349ab6ec74409da19efe96fa902, type: 2}
  m_PrefabInternal: {fileID: 180146371}
  serializedVersion: 5
  m_Component:
  - component: {fileID: 612740480}
  - component: {fileID: 612740481}
  m_Layer: 0
  m_Name: Col_1R
  m_TagString: Untagged
  m_Icon: {fileID: 0}
  m_NavMeshLayer: 0
  m_StaticEditorFlags: 0
  m_IsActive: 1
--- !u!4 &612740480
Transform:
  m_ObjectHideFlags: 0
  m_PrefabParentObject: {fileID: 478716, guid: 55281349ab6ec74409da19efe96fa902, type: 2}
  m_PrefabInternal: {fileID: 180146371}
  m_GameObject: {fileID: 612740479}
  m_LocalRotation: {x: 0, y: 0, z: 0, w: 1}
  m_LocalPosition: {x: 1.8, y: 0, z: -1}
  m_LocalScale: {x: 1, y: 1, z: 1}
  m_Children: []
  m_Father: {fileID: 618555362}
  m_RootOrder: 3
  m_LocalEulerAnglesHint: {x: 0, y: 0, z: 0}
--- !u!146 &612740481
WheelCollider:
  m_ObjectHideFlags: 0
  m_PrefabParentObject: {fileID: 14619324, guid: 55281349ab6ec74409da19efe96fa902,
    type: 2}
  m_PrefabInternal: {fileID: 180146371}
  m_GameObject: {fileID: 612740479}
  m_Center: {x: 0, y: 0, z: 0}
  m_Radius: 0.87
  m_SuspensionSpring:
    spring: 35000
    damper: 4500
    targetPosition: 0.5
  m_SuspensionDistance: 0.3
  m_ForceAppPointDistance: 0
  m_Mass: 20
  m_WheelDampingRate: 0.25
  m_ForwardFriction:
    m_ExtremumSlip: 0.4
    m_ExtremumValue: 1
    m_AsymptoteSlip: 0.8
    m_AsymptoteValue: 0.5
    m_Stiffness: 1
  m_SidewaysFriction:
    m_ExtremumSlip: 0.2
    m_ExtremumValue: 1
    m_AsymptoteSlip: 0.5
    m_AsymptoteValue: 0.75
    m_Stiffness: 1
  m_Enabled: 1
--- !u!1 &618555361
GameObject:
  m_ObjectHideFlags: 0
  m_PrefabParentObject: {fileID: 147736, guid: 55281349ab6ec74409da19efe96fa902, type: 2}
  m_PrefabInternal: {fileID: 180146371}
  serializedVersion: 5
  m_Component:
  - component: {fileID: 618555362}
  m_Layer: 0
  m_Name: Wheel Colliders
  m_TagString: Untagged
  m_Icon: {fileID: 0}
  m_NavMeshLayer: 0
  m_StaticEditorFlags: 0
  m_IsActive: 1
--- !u!4 &618555362
Transform:
  m_ObjectHideFlags: 0
  m_PrefabParentObject: {fileID: 439384, guid: 55281349ab6ec74409da19efe96fa902, type: 2}
  m_PrefabInternal: {fileID: 180146371}
  m_GameObject: {fileID: 618555361}
  m_LocalRotation: {x: 0, y: 0, z: 0, w: 1}
  m_LocalPosition: {x: 0, y: 0, z: 0}
  m_LocalScale: {x: 1, y: 1, z: 1}
  m_Children:
  - {fileID: 758765933}
  - {fileID: 1786366478}
  - {fileID: 1593135366}
  - {fileID: 612740480}
  - {fileID: 839819576}
  - {fileID: 1249892608}
  m_Father: {fileID: 1812107634}
  m_RootOrder: 3
  m_LocalEulerAnglesHint: {x: 0, y: 0, z: 0}
--- !u!1 &731525656
GameObject:
  m_ObjectHideFlags: 0
  m_PrefabParentObject: {fileID: 182972, guid: 55281349ab6ec74409da19efe96fa902, type: 2}
  m_PrefabInternal: {fileID: 180146371}
  serializedVersion: 5
  m_Component:
  - component: {fileID: 731525657}
  m_Layer: 0
  m_Name: Wheels Meshes
  m_TagString: Untagged
  m_Icon: {fileID: 0}
  m_NavMeshLayer: 0
  m_StaticEditorFlags: 0
  m_IsActive: 1
--- !u!4 &731525657
Transform:
  m_ObjectHideFlags: 0
  m_PrefabParentObject: {fileID: 441956, guid: 55281349ab6ec74409da19efe96fa902, type: 2}
  m_PrefabInternal: {fileID: 180146371}
  m_GameObject: {fileID: 731525656}
  m_LocalRotation: {x: 0, y: 0, z: 0, w: 1}
  m_LocalPosition: {x: 0, y: 0, z: 0}
  m_LocalScale: {x: 1, y: 1, z: 1}
  m_Children:
  - {fileID: 737746901}
  - {fileID: 1090334619}
  - {fileID: 399225838}
  - {fileID: 1960507044}
  - {fileID: 1347905287}
  - {fileID: 497117089}
  m_Father: {fileID: 1812107634}
  m_RootOrder: 2
  m_LocalEulerAnglesHint: {x: 0, y: 0, z: 0}
--- !u!1 &737746900
GameObject:
  m_ObjectHideFlags: 0
  m_PrefabParentObject: {fileID: 130842, guid: 55281349ab6ec74409da19efe96fa902, type: 2}
  m_PrefabInternal: {fileID: 180146371}
  serializedVersion: 5
  m_Component:
  - component: {fileID: 737746901}
  - component: {fileID: 737746903}
  - component: {fileID: 737746902}
  m_Layer: 0
  m_Name: FL
  m_TagString: Untagged
  m_Icon: {fileID: 0}
  m_NavMeshLayer: 0
  m_StaticEditorFlags: 0
  m_IsActive: 1
--- !u!4 &737746901
Transform:
  m_ObjectHideFlags: 0
  m_PrefabParentObject: {fileID: 400164, guid: 55281349ab6ec74409da19efe96fa902, type: 2}
  m_PrefabInternal: {fileID: 180146371}
  m_GameObject: {fileID: 737746900}
  m_LocalRotation: {x: 0, y: 0, z: 0, w: 1}
  m_LocalPosition: {x: -1.8, y: 0, z: 3}
  m_LocalScale: {x: 1, y: 1, z: 1}
  m_Children: []
  m_Father: {fileID: 731525657}
  m_RootOrder: 0
  m_LocalEulerAnglesHint: {x: 0, y: 0, z: 0}
--- !u!23 &737746902
MeshRenderer:
  m_ObjectHideFlags: 0
  m_PrefabParentObject: {fileID: 2351676, guid: 55281349ab6ec74409da19efe96fa902,
    type: 2}
  m_PrefabInternal: {fileID: 180146371}
  m_GameObject: {fileID: 737746900}
  m_Enabled: 1
  m_CastShadows: 1
  m_ReceiveShadows: 1
  m_DynamicOccludee: 1
  m_MotionVectors: 1
  m_LightProbeUsage: 1
  m_ReflectionProbeUsage: 1
  m_RenderingLayerMask: 4294967295
  m_Materials:
  - {fileID: 2100000, guid: 7306cd9ff62712d49ba875ddadd338ed, type: 2}
  m_StaticBatchInfo:
    firstSubMesh: 0
    subMeshCount: 0
  m_StaticBatchRoot: {fileID: 0}
  m_ProbeAnchor: {fileID: 0}
  m_LightProbeVolumeOverride: {fileID: 0}
  m_ScaleInLightmap: 1
  m_PreserveUVs: 0
  m_IgnoreNormalsForChartDetection: 0
  m_ImportantGI: 0
  m_StitchLightmapSeams: 0
  m_SelectedEditorRenderState: 3
  m_MinimumChartSize: 4
  m_AutoUVMaxDistance: 0.5
  m_AutoUVMaxAngle: 89
  m_LightmapParameters: {fileID: 0}
  m_SortingLayerID: 0
  m_SortingLayer: 0
  m_SortingOrder: 0
--- !u!33 &737746903
MeshFilter:
  m_ObjectHideFlags: 0
  m_PrefabParentObject: {fileID: 3379560, guid: 55281349ab6ec74409da19efe96fa902,
    type: 2}
  m_PrefabInternal: {fileID: 180146371}
  m_GameObject: {fileID: 737746900}
  m_Mesh: {fileID: 4300000, guid: b7604807c4f956c4daa589baf5e3a4bc, type: 3}
--- !u!1 &758765932
GameObject:
  m_ObjectHideFlags: 0
  m_PrefabParentObject: {fileID: 159644, guid: 55281349ab6ec74409da19efe96fa902, type: 2}
  m_PrefabInternal: {fileID: 180146371}
  serializedVersion: 5
  m_Component:
  - component: {fileID: 758765933}
  - component: {fileID: 758765934}
  m_Layer: 0
  m_Name: Col_FL
  m_TagString: Untagged
  m_Icon: {fileID: 0}
  m_NavMeshLayer: 0
  m_StaticEditorFlags: 0
  m_IsActive: 1
--- !u!4 &758765933
Transform:
  m_ObjectHideFlags: 0
  m_PrefabParentObject: {fileID: 498540, guid: 55281349ab6ec74409da19efe96fa902, type: 2}
  m_PrefabInternal: {fileID: 180146371}
  m_GameObject: {fileID: 758765932}
  m_LocalRotation: {x: 0, y: 0, z: 0, w: 1}
  m_LocalPosition: {x: -1.8, y: 0, z: 3}
  m_LocalScale: {x: 1, y: 1, z: 1}
  m_Children: []
  m_Father: {fileID: 618555362}
  m_RootOrder: 0
  m_LocalEulerAnglesHint: {x: 0, y: 0, z: 0}
--- !u!146 &758765934
WheelCollider:
  m_ObjectHideFlags: 0
  m_PrefabParentObject: {fileID: 14644886, guid: 55281349ab6ec74409da19efe96fa902,
    type: 2}
  m_PrefabInternal: {fileID: 180146371}
  m_GameObject: {fileID: 758765932}
  m_Center: {x: 0, y: 0, z: 0}
  m_Radius: 0.87
  m_SuspensionSpring:
    spring: 35000
    damper: 4500
    targetPosition: 0.5
  m_SuspensionDistance: 0.3
  m_ForceAppPointDistance: 0
  m_Mass: 20
  m_WheelDampingRate: 0.25
  m_ForwardFriction:
    m_ExtremumSlip: 0.4
    m_ExtremumValue: 1
    m_AsymptoteSlip: 0.8
    m_AsymptoteValue: 0.5
    m_Stiffness: 1
  m_SidewaysFriction:
    m_ExtremumSlip: 0.2
    m_ExtremumValue: 1
    m_AsymptoteSlip: 0.5
    m_AsymptoteValue: 0.75
    m_Stiffness: 1
  m_Enabled: 1
--- !u!1 &834586473
GameObject:
  m_ObjectHideFlags: 0
  m_PrefabParentObject: {fileID: 0}
  m_PrefabInternal: {fileID: 0}
  serializedVersion: 5
  m_Component:
  - component: {fileID: 834586477}
  - component: {fileID: 834586476}
  - component: {fileID: 834586475}
  - component: {fileID: 834586474}
  m_Layer: 0
  m_Name: Plane
  m_TagString: Untagged
  m_Icon: {fileID: 0}
  m_NavMeshLayer: 0
  m_StaticEditorFlags: 0
  m_IsActive: 1
--- !u!23 &834586474
MeshRenderer:
  m_ObjectHideFlags: 0
  m_PrefabParentObject: {fileID: 0}
  m_PrefabInternal: {fileID: 0}
  m_GameObject: {fileID: 834586473}
  m_Enabled: 1
  m_CastShadows: 1
  m_ReceiveShadows: 1
  m_DynamicOccludee: 1
  m_MotionVectors: 1
  m_LightProbeUsage: 1
  m_ReflectionProbeUsage: 1
  m_RenderingLayerMask: 4294967295
  m_Materials:
  - {fileID: 10303, guid: 0000000000000000f000000000000000, type: 0}
  m_StaticBatchInfo:
    firstSubMesh: 0
    subMeshCount: 0
  m_StaticBatchRoot: {fileID: 0}
  m_ProbeAnchor: {fileID: 0}
  m_LightProbeVolumeOverride: {fileID: 0}
  m_ScaleInLightmap: 1
  m_PreserveUVs: 1
  m_IgnoreNormalsForChartDetection: 0
  m_ImportantGI: 0
  m_StitchLightmapSeams: 0
  m_SelectedEditorRenderState: 3
  m_MinimumChartSize: 4
  m_AutoUVMaxDistance: 0.5
  m_AutoUVMaxAngle: 89
  m_LightmapParameters: {fileID: 0}
  m_SortingLayerID: 0
  m_SortingLayer: 0
  m_SortingOrder: 0
--- !u!64 &834586475
MeshCollider:
  m_ObjectHideFlags: 0
  m_PrefabParentObject: {fileID: 0}
  m_PrefabInternal: {fileID: 0}
  m_GameObject: {fileID: 834586473}
  m_Material: {fileID: 0}
  m_IsTrigger: 0
  m_Enabled: 1
  serializedVersion: 3
  m_Convex: 0
  m_CookingOptions: 14
  m_SkinWidth: 0.01
  m_Mesh: {fileID: 10209, guid: 0000000000000000e000000000000000, type: 0}
--- !u!33 &834586476
MeshFilter:
  m_ObjectHideFlags: 0
  m_PrefabParentObject: {fileID: 0}
  m_PrefabInternal: {fileID: 0}
  m_GameObject: {fileID: 834586473}
  m_Mesh: {fileID: 10209, guid: 0000000000000000e000000000000000, type: 0}
--- !u!4 &834586477
Transform:
  m_ObjectHideFlags: 0
  m_PrefabParentObject: {fileID: 0}
  m_PrefabInternal: {fileID: 0}
  m_GameObject: {fileID: 834586473}
  m_LocalRotation: {x: 0, y: 0, z: 0, w: 1}
  m_LocalPosition: {x: 0, y: 0, z: 0}
  m_LocalScale: {x: 100, y: 100, z: 100}
  m_Children: []
  m_Father: {fileID: 0}
  m_RootOrder: 1
  m_LocalEulerAnglesHint: {x: 0, y: 0, z: 0}
--- !u!1 &839819575
GameObject:
  m_ObjectHideFlags: 0
  m_PrefabParentObject: {fileID: 139526, guid: 55281349ab6ec74409da19efe96fa902, type: 2}
  m_PrefabInternal: {fileID: 180146371}
  serializedVersion: 5
  m_Component:
  - component: {fileID: 839819576}
  - component: {fileID: 839819577}
  m_Layer: 0
  m_Name: Col_RL
  m_TagString: Untagged
  m_Icon: {fileID: 0}
  m_NavMeshLayer: 0
  m_StaticEditorFlags: 0
  m_IsActive: 1
--- !u!4 &839819576
Transform:
  m_ObjectHideFlags: 0
  m_PrefabParentObject: {fileID: 487622, guid: 55281349ab6ec74409da19efe96fa902, type: 2}
  m_PrefabInternal: {fileID: 180146371}
  m_GameObject: {fileID: 839819575}
  m_LocalRotation: {x: 0, y: 0, z: 0, w: 1}
  m_LocalPosition: {x: -1.8, y: 0, z: -3}
  m_LocalScale: {x: 1, y: 1, z: 1}
  m_Children: []
  m_Father: {fileID: 618555362}
  m_RootOrder: 4
  m_LocalEulerAnglesHint: {x: 0, y: 0, z: 0}
--- !u!146 &839819577
WheelCollider:
  m_ObjectHideFlags: 0
  m_PrefabParentObject: {fileID: 14659646, guid: 55281349ab6ec74409da19efe96fa902,
    type: 2}
  m_PrefabInternal: {fileID: 180146371}
  m_GameObject: {fileID: 839819575}
  m_Center: {x: 0, y: 0, z: 0}
  m_Radius: 0.87
  m_SuspensionSpring:
    spring: 35000
    damper: 4500
    targetPosition: 0.5
  m_SuspensionDistance: 0.3
  m_ForceAppPointDistance: 0
  m_Mass: 20
  m_WheelDampingRate: 0.25
  m_ForwardFriction:
    m_ExtremumSlip: 0.4
    m_ExtremumValue: 1
    m_AsymptoteSlip: 0.8
    m_AsymptoteValue: 0.5
    m_Stiffness: 1
  m_SidewaysFriction:
    m_ExtremumSlip: 0.2
    m_ExtremumValue: 1
    m_AsymptoteSlip: 0.5
    m_AsymptoteValue: 0.75
    m_Stiffness: 1
  m_Enabled: 1
--- !u!1 &942983243
GameObject:
  m_ObjectHideFlags: 0
  m_PrefabParentObject: {fileID: 0}
  m_PrefabInternal: {fileID: 0}
  serializedVersion: 5
  m_Component:
  - component: {fileID: 942983248}
  - component: {fileID: 942983247}
  - component: {fileID: 942983246}
  - component: {fileID: 942983245}
  - component: {fileID: 942983244}
  m_Layer: 0
  m_Name: Main Camera
  m_TagString: MainCamera
  m_Icon: {fileID: 0}
  m_NavMeshLayer: 0
  m_StaticEditorFlags: 0
  m_IsActive: 1
--- !u!81 &942983244
AudioListener:
  m_ObjectHideFlags: 0
  m_PrefabParentObject: {fileID: 0}
  m_PrefabInternal: {fileID: 0}
  m_GameObject: {fileID: 942983243}
  m_Enabled: 1
--- !u!124 &942983245
Behaviour:
  m_ObjectHideFlags: 0
  m_PrefabParentObject: {fileID: 0}
  m_PrefabInternal: {fileID: 0}
  m_GameObject: {fileID: 942983243}
  m_Enabled: 1
--- !u!92 &942983246
Behaviour:
  m_ObjectHideFlags: 0
  m_PrefabParentObject: {fileID: 0}
  m_PrefabInternal: {fileID: 0}
  m_GameObject: {fileID: 942983243}
  m_Enabled: 1
--- !u!20 &942983247
Camera:
  m_ObjectHideFlags: 0
  m_PrefabParentObject: {fileID: 0}
  m_PrefabInternal: {fileID: 0}
  m_GameObject: {fileID: 942983243}
  m_Enabled: 1
  serializedVersion: 2
  m_ClearFlags: 1
  m_BackGroundColor: {r: 0.19215687, g: 0.3019608, b: 0.4745098, a: 0.019607844}
  m_NormalizedViewPortRect:
    serializedVersion: 2
    x: 0
    y: 0
    width: 1
    height: 1
  near clip plane: 0.3
  far clip plane: 1000
  field of view: 60
  orthographic: 0
  orthographic size: 5
  m_Depth: -1
  m_CullingMask:
    serializedVersion: 2
    m_Bits: 4294967295
  m_RenderingPath: -1
  m_TargetTexture: {fileID: 0}
  m_TargetDisplay: 0
  m_TargetEye: 3
  m_HDR: 0
  m_AllowMSAA: 1
  m_AllowDynamicResolution: 0
  m_ForceIntoRT: 0
  m_OcclusionCulling: 1
  m_StereoConvergence: 10
  m_StereoSeparation: 0.022
--- !u!4 &942983248
Transform:
  m_ObjectHideFlags: 0
  m_PrefabParentObject: {fileID: 0}
  m_PrefabInternal: {fileID: 0}
  m_GameObject: {fileID: 942983243}
  m_LocalRotation: {x: 0.2186436, y: -0.35707343, z: 0.08638231, w: 0.9040087}
  m_LocalPosition: {x: 8.758603, y: 7.6448216, z: -8.691053}
  m_LocalScale: {x: 1, y: 1, z: 1}
  m_Children: []
  m_Father: {fileID: 0}
  m_RootOrder: 0
  m_LocalEulerAnglesHint: {x: 0, y: 0, z: 0}
--- !u!1 &1090334618
GameObject:
  m_ObjectHideFlags: 0
  m_PrefabParentObject: {fileID: 104488, guid: 55281349ab6ec74409da19efe96fa902, type: 2}
  m_PrefabInternal: {fileID: 180146371}
  serializedVersion: 5
  m_Component:
  - component: {fileID: 1090334619}
  - component: {fileID: 1090334621}
  - component: {fileID: 1090334620}
  m_Layer: 0
  m_Name: FR
  m_TagString: Untagged
  m_Icon: {fileID: 0}
  m_NavMeshLayer: 0
  m_StaticEditorFlags: 0
  m_IsActive: 1
--- !u!4 &1090334619
Transform:
  m_ObjectHideFlags: 0
  m_PrefabParentObject: {fileID: 435324, guid: 55281349ab6ec74409da19efe96fa902, type: 2}
  m_PrefabInternal: {fileID: 180146371}
  m_GameObject: {fileID: 1090334618}
  m_LocalRotation: {x: 0, y: 0, z: 0, w: 1}
  m_LocalPosition: {x: 1.8, y: 0, z: 3}
  m_LocalScale: {x: 1, y: 1, z: 1}
  m_Children: []
  m_Father: {fileID: 731525657}
  m_RootOrder: 1
  m_LocalEulerAnglesHint: {x: 0, y: 0, z: 0}
--- !u!23 &1090334620
MeshRenderer:
  m_ObjectHideFlags: 0
  m_PrefabParentObject: {fileID: 2327282, guid: 55281349ab6ec74409da19efe96fa902,
    type: 2}
  m_PrefabInternal: {fileID: 180146371}
  m_GameObject: {fileID: 1090334618}
  m_Enabled: 1
  m_CastShadows: 1
  m_ReceiveShadows: 1
  m_DynamicOccludee: 1
  m_MotionVectors: 1
  m_LightProbeUsage: 1
  m_ReflectionProbeUsage: 1
  m_RenderingLayerMask: 4294967295
  m_Materials:
  - {fileID: 2100000, guid: 7306cd9ff62712d49ba875ddadd338ed, type: 2}
  m_StaticBatchInfo:
    firstSubMesh: 0
    subMeshCount: 0
  m_StaticBatchRoot: {fileID: 0}
  m_ProbeAnchor: {fileID: 0}
  m_LightProbeVolumeOverride: {fileID: 0}
  m_ScaleInLightmap: 1
  m_PreserveUVs: 0
  m_IgnoreNormalsForChartDetection: 0
  m_ImportantGI: 0
  m_StitchLightmapSeams: 0
  m_SelectedEditorRenderState: 3
  m_MinimumChartSize: 4
  m_AutoUVMaxDistance: 0.5
  m_AutoUVMaxAngle: 89
  m_LightmapParameters: {fileID: 0}
  m_SortingLayerID: 0
  m_SortingLayer: 0
  m_SortingOrder: 0
--- !u!33 &1090334621
MeshFilter:
  m_ObjectHideFlags: 0
  m_PrefabParentObject: {fileID: 3371412, guid: 55281349ab6ec74409da19efe96fa902,
    type: 2}
  m_PrefabInternal: {fileID: 180146371}
  m_GameObject: {fileID: 1090334618}
  m_Mesh: {fileID: 4300000, guid: 6fc09161a7612284eb475c73f1442fe5, type: 3}
--- !u!1 &1118504406
GameObject:
  m_ObjectHideFlags: 0
  m_PrefabParentObject: {fileID: 190934, guid: 55281349ab6ec74409da19efe96fa902, type: 2}
  m_PrefabInternal: {fileID: 180146371}
  serializedVersion: 5
  m_Component:
  - component: {fileID: 1118504407}
  - component: {fileID: 1118504409}
  - component: {fileID: 1118504408}
  m_Layer: 0
  m_Name: Car_Mesh
  m_TagString: Untagged
  m_Icon: {fileID: 0}
  m_NavMeshLayer: 0
  m_StaticEditorFlags: 0
  m_IsActive: 1
--- !u!4 &1118504407
Transform:
  m_ObjectHideFlags: 0
  m_PrefabParentObject: {fileID: 475276, guid: 55281349ab6ec74409da19efe96fa902, type: 2}
  m_PrefabInternal: {fileID: 180146371}
  m_GameObject: {fileID: 1118504406}
  m_LocalRotation: {x: 0, y: 0, z: 0, w: 1}
  m_LocalPosition: {x: 0, y: 0.39, z: 0}
  m_LocalScale: {x: 1.7797215, y: 1.3025746, z: 7.186767}
  m_Children: []
  m_Father: {fileID: 1812107634}
  m_RootOrder: 0
  m_LocalEulerAnglesHint: {x: 0, y: 0, z: 0}
--- !u!23 &1118504408
MeshRenderer:
  m_ObjectHideFlags: 0
  m_PrefabParentObject: {fileID: 2322026, guid: 55281349ab6ec74409da19efe96fa902,
    type: 2}
  m_PrefabInternal: {fileID: 180146371}
  m_GameObject: {fileID: 1118504406}
  m_Enabled: 1
  m_CastShadows: 1
  m_ReceiveShadows: 1
  m_DynamicOccludee: 1
  m_MotionVectors: 1
  m_LightProbeUsage: 1
  m_ReflectionProbeUsage: 1
  m_RenderingLayerMask: 4294967295
  m_Materials:
  - {fileID: 10303, guid: 0000000000000000f000000000000000, type: 0}
  m_StaticBatchInfo:
    firstSubMesh: 0
    subMeshCount: 0
  m_StaticBatchRoot: {fileID: 0}
  m_ProbeAnchor: {fileID: 0}
  m_LightProbeVolumeOverride: {fileID: 0}
  m_ScaleInLightmap: 1
  m_PreserveUVs: 1
  m_IgnoreNormalsForChartDetection: 0
  m_ImportantGI: 0
  m_StitchLightmapSeams: 0
  m_SelectedEditorRenderState: 3
  m_MinimumChartSize: 4
  m_AutoUVMaxDistance: 0.5
  m_AutoUVMaxAngle: 89
  m_LightmapParameters: {fileID: 0}
  m_SortingLayerID: 0
  m_SortingLayer: 0
  m_SortingOrder: 0
--- !u!33 &1118504409
MeshFilter:
  m_ObjectHideFlags: 0
  m_PrefabParentObject: {fileID: 3334722, guid: 55281349ab6ec74409da19efe96fa902,
    type: 2}
  m_PrefabInternal: {fileID: 180146371}
  m_GameObject: {fileID: 1118504406}
  m_Mesh: {fileID: 10202, guid: 0000000000000000e000000000000000, type: 0}
--- !u!1 &1249892606
GameObject:
  m_ObjectHideFlags: 0
  m_PrefabParentObject: {fileID: 116476, guid: 55281349ab6ec74409da19efe96fa902, type: 2}
  m_PrefabInternal: {fileID: 180146371}
  serializedVersion: 5
  m_Component:
  - component: {fileID: 1249892608}
  - component: {fileID: 1249892607}
  m_Layer: 0
  m_Name: Col_RR
  m_TagString: Untagged
  m_Icon: {fileID: 0}
  m_NavMeshLayer: 0
  m_StaticEditorFlags: 0
  m_IsActive: 1
--- !u!146 &1249892607
WheelCollider:
  m_ObjectHideFlags: 0
  m_PrefabParentObject: {fileID: 14691488, guid: 55281349ab6ec74409da19efe96fa902,
    type: 2}
  m_PrefabInternal: {fileID: 180146371}
  m_GameObject: {fileID: 1249892606}
  m_Center: {x: 0, y: 0, z: 0}
  m_Radius: 0.87
  m_SuspensionSpring:
    spring: 35000
    damper: 4500
    targetPosition: 0.5
  m_SuspensionDistance: 0.3
  m_ForceAppPointDistance: 0
  m_Mass: 20
  m_WheelDampingRate: 0.25
  m_ForwardFriction:
    m_ExtremumSlip: 0.4
    m_ExtremumValue: 1
    m_AsymptoteSlip: 0.8
    m_AsymptoteValue: 0.5
    m_Stiffness: 1
  m_SidewaysFriction:
    m_ExtremumSlip: 0.2
    m_ExtremumValue: 1
    m_AsymptoteSlip: 0.5
    m_AsymptoteValue: 0.75
    m_Stiffness: 1
  m_Enabled: 1
--- !u!4 &1249892608
Transform:
  m_ObjectHideFlags: 0
  m_PrefabParentObject: {fileID: 435680, guid: 55281349ab6ec74409da19efe96fa902, type: 2}
  m_PrefabInternal: {fileID: 180146371}
  m_GameObject: {fileID: 1249892606}
  m_LocalRotation: {x: 0, y: 0, z: 0, w: 1}
  m_LocalPosition: {x: 1.8, y: 0, z: -3}
  m_LocalScale: {x: 1, y: 1, z: 1}
  m_Children: []
  m_Father: {fileID: 618555362}
  m_RootOrder: 5
  m_LocalEulerAnglesHint: {x: 0, y: 0, z: 0}
--- !u!1 &1347905286
GameObject:
  m_ObjectHideFlags: 0
  m_PrefabParentObject: {fileID: 190276, guid: 55281349ab6ec74409da19efe96fa902, type: 2}
  m_PrefabInternal: {fileID: 180146371}
  serializedVersion: 5
  m_Component:
  - component: {fileID: 1347905287}
  - component: {fileID: 1347905289}
  - component: {fileID: 1347905288}
  m_Layer: 0
  m_Name: RL
  m_TagString: Untagged
  m_Icon: {fileID: 0}
  m_NavMeshLayer: 0
  m_StaticEditorFlags: 0
  m_IsActive: 1
--- !u!4 &1347905287
Transform:
  m_ObjectHideFlags: 0
  m_PrefabParentObject: {fileID: 481160, guid: 55281349ab6ec74409da19efe96fa902, type: 2}
  m_PrefabInternal: {fileID: 180146371}
  m_GameObject: {fileID: 1347905286}
  m_LocalRotation: {x: 0, y: 0, z: 0, w: 1}
  m_LocalPosition: {x: -1.8, y: 0, z: -3}
  m_LocalScale: {x: 1, y: 1, z: 1}
  m_Children: []
  m_Father: {fileID: 731525657}
  m_RootOrder: 4
  m_LocalEulerAnglesHint: {x: 0, y: 0, z: 0}
--- !u!23 &1347905288
MeshRenderer:
  m_ObjectHideFlags: 0
  m_PrefabParentObject: {fileID: 2387072, guid: 55281349ab6ec74409da19efe96fa902,
    type: 2}
  m_PrefabInternal: {fileID: 180146371}
  m_GameObject: {fileID: 1347905286}
  m_Enabled: 1
  m_CastShadows: 1
  m_ReceiveShadows: 1
  m_DynamicOccludee: 1
  m_MotionVectors: 1
  m_LightProbeUsage: 1
  m_ReflectionProbeUsage: 1
  m_RenderingLayerMask: 4294967295
  m_Materials:
  - {fileID: 2100000, guid: 7306cd9ff62712d49ba875ddadd338ed, type: 2}
  m_StaticBatchInfo:
    firstSubMesh: 0
    subMeshCount: 0
  m_StaticBatchRoot: {fileID: 0}
  m_ProbeAnchor: {fileID: 0}
  m_LightProbeVolumeOverride: {fileID: 0}
  m_ScaleInLightmap: 1
  m_PreserveUVs: 0
  m_IgnoreNormalsForChartDetection: 0
  m_ImportantGI: 0
  m_StitchLightmapSeams: 0
  m_SelectedEditorRenderState: 3
  m_MinimumChartSize: 4
  m_AutoUVMaxDistance: 0.5
  m_AutoUVMaxAngle: 89
  m_LightmapParameters: {fileID: 0}
  m_SortingLayerID: 0
  m_SortingLayer: 0
  m_SortingOrder: 0
--- !u!33 &1347905289
MeshFilter:
  m_ObjectHideFlags: 0
  m_PrefabParentObject: {fileID: 3381480, guid: 55281349ab6ec74409da19efe96fa902,
    type: 2}
  m_PrefabInternal: {fileID: 180146371}
  m_GameObject: {fileID: 1347905286}
  m_Mesh: {fileID: 4300000, guid: b7604807c4f956c4daa589baf5e3a4bc, type: 3}
--- !u!1 &1593135365
GameObject:
  m_ObjectHideFlags: 0
  m_PrefabParentObject: {fileID: 145628, guid: 55281349ab6ec74409da19efe96fa902, type: 2}
  m_PrefabInternal: {fileID: 180146371}
  serializedVersion: 5
  m_Component:
  - component: {fileID: 1593135366}
  - component: {fileID: 1593135367}
  m_Layer: 0
  m_Name: Col_1L
  m_TagString: Untagged
  m_Icon: {fileID: 0}
  m_NavMeshLayer: 0
  m_StaticEditorFlags: 0
  m_IsActive: 1
--- !u!4 &1593135366
Transform:
  m_ObjectHideFlags: 0
  m_PrefabParentObject: {fileID: 428960, guid: 55281349ab6ec74409da19efe96fa902, type: 2}
  m_PrefabInternal: {fileID: 180146371}
  m_GameObject: {fileID: 1593135365}
  m_LocalRotation: {x: 0, y: 0, z: 0, w: 1}
  m_LocalPosition: {x: -1.8, y: 0, z: -1}
  m_LocalScale: {x: 1, y: 1, z: 1}
  m_Children: []
  m_Father: {fileID: 618555362}
  m_RootOrder: 2
  m_LocalEulerAnglesHint: {x: 0, y: 0, z: 0}
--- !u!146 &1593135367
WheelCollider:
  m_ObjectHideFlags: 0
  m_PrefabParentObject: {fileID: 14603432, guid: 55281349ab6ec74409da19efe96fa902,
    type: 2}
  m_PrefabInternal: {fileID: 180146371}
  m_GameObject: {fileID: 1593135365}
  m_Center: {x: 0, y: 0, z: 0}
  m_Radius: 0.87
  m_SuspensionSpring:
    spring: 35000
    damper: 4500
    targetPosition: 0.5
  m_SuspensionDistance: 0.3
  m_ForceAppPointDistance: 0
  m_Mass: 20
  m_WheelDampingRate: 0.25
  m_ForwardFriction:
    m_ExtremumSlip: 0.4
    m_ExtremumValue: 1
    m_AsymptoteSlip: 0.8
    m_AsymptoteValue: 0.5
    m_Stiffness: 1
  m_SidewaysFriction:
    m_ExtremumSlip: 0.2
    m_ExtremumValue: 1
    m_AsymptoteSlip: 0.5
    m_AsymptoteValue: 0.75
    m_Stiffness: 1
  m_Enabled: 1
--- !u!1 &1786366477
GameObject:
  m_ObjectHideFlags: 0
  m_PrefabParentObject: {fileID: 192962, guid: 55281349ab6ec74409da19efe96fa902, type: 2}
  m_PrefabInternal: {fileID: 180146371}
  serializedVersion: 5
  m_Component:
  - component: {fileID: 1786366478}
  - component: {fileID: 1786366479}
  m_Layer: 0
  m_Name: Col_FR
  m_TagString: Untagged
  m_Icon: {fileID: 0}
  m_NavMeshLayer: 0
  m_StaticEditorFlags: 0
  m_IsActive: 1
--- !u!4 &1786366478
Transform:
  m_ObjectHideFlags: 0
  m_PrefabParentObject: {fileID: 491186, guid: 55281349ab6ec74409da19efe96fa902, type: 2}
  m_PrefabInternal: {fileID: 180146371}
  m_GameObject: {fileID: 1786366477}
  m_LocalRotation: {x: 0, y: 0, z: 0, w: 1}
  m_LocalPosition: {x: 1.8, y: 0, z: 3}
  m_LocalScale: {x: 1, y: 1, z: 1}
  m_Children: []
  m_Father: {fileID: 618555362}
  m_RootOrder: 1
  m_LocalEulerAnglesHint: {x: 0, y: 0, z: 0}
--- !u!146 &1786366479
WheelCollider:
  m_ObjectHideFlags: 0
  m_PrefabParentObject: {fileID: 14648538, guid: 55281349ab6ec74409da19efe96fa902,
    type: 2}
  m_PrefabInternal: {fileID: 180146371}
  m_GameObject: {fileID: 1786366477}
  m_Center: {x: 0, y: 0, z: 0}
  m_Radius: 0.87
  m_SuspensionSpring:
    spring: 35000
    damper: 4500
    targetPosition: 0.5
  m_SuspensionDistance: 0.3
  m_ForceAppPointDistance: 0
  m_Mass: 20
  m_WheelDampingRate: 0.25
  m_ForwardFriction:
    m_ExtremumSlip: 0.4
    m_ExtremumValue: 1
    m_AsymptoteSlip: 0.8
    m_AsymptoteValue: 0.5
    m_Stiffness: 1
  m_SidewaysFriction:
    m_ExtremumSlip: 0.2
    m_ExtremumValue: 1
    m_AsymptoteSlip: 0.5
    m_AsymptoteValue: 0.75
    m_Stiffness: 1
  m_Enabled: 1
--- !u!1 &1812107631
GameObject:
  m_ObjectHideFlags: 0
  m_PrefabParentObject: {fileID: 147314, guid: 55281349ab6ec74409da19efe96fa902, type: 2}
  m_PrefabInternal: {fileID: 180146371}
  serializedVersion: 5
  m_Component:
  - component: {fileID: 1812107634}
  - component: {fileID: 1812107633}
  - component: {fileID: 1812107632}
  m_Layer: 0
  m_Name: Car_Base
  m_TagString: Untagged
  m_Icon: {fileID: 0}
  m_NavMeshLayer: 0
  m_StaticEditorFlags: 0
  m_IsActive: 1
--- !u!114 &1812107632
MonoBehaviour:
  m_ObjectHideFlags: 0
  m_PrefabParentObject: {fileID: 11459688, guid: 55281349ab6ec74409da19efe96fa902,
    type: 2}
  m_PrefabInternal: {fileID: 180146371}
  m_GameObject: {fileID: 1812107631}
  m_Enabled: 1
  m_EditorHideFlags: 0
  m_Script: {fileID: 11500000, guid: 5c73e278ff2d2bc4b9b7e87a18cf892a, type: 3}
  m_Name: 
  m_EditorClassIdentifier: 
  maxMotorTorque: 2500
  maxSteeringAngle: 35
  truck_Infos:
  - leftWheel: {fileID: 758765934}
    leftWheelMesh: {fileID: 737746900}
    rightWheel: {fileID: 1786366479}
    rightWheelMesh: {fileID: 1090334618}
    motor: 1
    steering: 1
    reverseTurn: 0
  - leftWheel: {fileID: 1593135367}
    leftWheelMesh: {fileID: 399225837}
    rightWheel: {fileID: 612740481}
    rightWheelMesh: {fileID: 1960507043}
    motor: 1
    steering: 0
    reverseTurn: 0
  - leftWheel: {fileID: 839819577}
    leftWheelMesh: {fileID: 1347905286}
    rightWheel: {fileID: 1249892607}
    rightWheelMesh: {fileID: 497117086}
    motor: 1
    steering: 0
    reverseTurn: 0
--- !u!54 &1812107633
Rigidbody:
  m_ObjectHideFlags: 0
  m_PrefabParentObject: {fileID: 5435162, guid: 55281349ab6ec74409da19efe96fa902,
    type: 2}
  m_PrefabInternal: {fileID: 180146371}
  m_GameObject: {fileID: 1812107631}
  serializedVersion: 2
  m_Mass: 850
  m_Drag: 0
  m_AngularDrag: 0.05
  m_UseGravity: 1
  m_IsKinematic: 0
  m_Interpolate: 0
  m_Constraints: 0
  m_CollisionDetection: 0
--- !u!4 &1812107634
Transform:
  m_ObjectHideFlags: 0
  m_PrefabParentObject: {fileID: 413674, guid: 55281349ab6ec74409da19efe96fa902, type: 2}
  m_PrefabInternal: {fileID: 180146371}
  m_GameObject: {fileID: 1812107631}
  m_LocalRotation: {x: 0, y: 0, z: 0, w: 1}
  m_LocalPosition: {x: 0, y: 1.62, z: 0}
  m_LocalScale: {x: 1, y: 1, z: 1}
  m_Children:
  - {fileID: 1118504407}
  - {fileID: 137731047}
  - {fileID: 731525657}
  - {fileID: 618555362}
  m_Father: {fileID: 0}
  m_RootOrder: 2
  m_LocalEulerAnglesHint: {x: 0, y: 0, z: 0}
--- !u!1 &1960507043
GameObject:
  m_ObjectHideFlags: 0
  m_PrefabParentObject: {fileID: 108888, guid: 55281349ab6ec74409da19efe96fa902, type: 2}
  m_PrefabInternal: {fileID: 180146371}
  serializedVersion: 5
  m_Component:
  - component: {fileID: 1960507044}
  - component: {fileID: 1960507046}
  - component: {fileID: 1960507045}
  m_Layer: 0
  m_Name: 1R
  m_TagString: Untagged
  m_Icon: {fileID: 0}
  m_NavMeshLayer: 0
  m_StaticEditorFlags: 0
  m_IsActive: 1
--- !u!4 &1960507044
Transform:
  m_ObjectHideFlags: 0
  m_PrefabParentObject: {fileID: 467634, guid: 55281349ab6ec74409da19efe96fa902, type: 2}
  m_PrefabInternal: {fileID: 180146371}
  m_GameObject: {fileID: 1960507043}
  m_LocalRotation: {x: 0, y: 0, z: 0, w: 1}
  m_LocalPosition: {x: 1.8, y: 0, z: -1}
  m_LocalScale: {x: 1, y: 1, z: 1}
  m_Children: []
  m_Father: {fileID: 731525657}
  m_RootOrder: 3
  m_LocalEulerAnglesHint: {x: 0, y: 0, z: 0}
--- !u!23 &1960507045
MeshRenderer:
  m_ObjectHideFlags: 0
  m_PrefabParentObject: {fileID: 2398656, guid: 55281349ab6ec74409da19efe96fa902,
    type: 2}
  m_PrefabInternal: {fileID: 180146371}
  m_GameObject: {fileID: 1960507043}
  m_Enabled: 1
  m_CastShadows: 1
  m_ReceiveShadows: 1
  m_DynamicOccludee: 1
  m_MotionVectors: 1
  m_LightProbeUsage: 1
  m_ReflectionProbeUsage: 1
  m_RenderingLayerMask: 4294967295
  m_Materials:
  - {fileID: 2100000, guid: 7306cd9ff62712d49ba875ddadd338ed, type: 2}
  m_StaticBatchInfo:
    firstSubMesh: 0
    subMeshCount: 0
  m_StaticBatchRoot: {fileID: 0}
  m_ProbeAnchor: {fileID: 0}
  m_LightProbeVolumeOverride: {fileID: 0}
  m_ScaleInLightmap: 1
  m_PreserveUVs: 0
  m_IgnoreNormalsForChartDetection: 0
  m_ImportantGI: 0
  m_StitchLightmapSeams: 0
  m_SelectedEditorRenderState: 3
  m_MinimumChartSize: 4
  m_AutoUVMaxDistance: 0.5
  m_AutoUVMaxAngle: 89
  m_LightmapParameters: {fileID: 0}
  m_SortingLayerID: 0
  m_SortingLayer: 0
  m_SortingOrder: 0
--- !u!33 &1960507046
MeshFilter:
  m_ObjectHideFlags: 0
  m_PrefabParentObject: {fileID: 3374552, guid: 55281349ab6ec74409da19efe96fa902,
    type: 2}
  m_PrefabInternal: {fileID: 180146371}
  m_GameObject: {fileID: 1960507043}
  m_Mesh: {fileID: 4300000, guid: 6fc09161a7612284eb475c73f1442fe5, type: 3}
